id;language;level
1;PCI;value-added
2;Fantastic mobile Languedoc-Roussillon;Cotton CFA b
3;state;Fantastic b
4;reboot program grow;lavender target Specialiste
5;Nord-Pas-de-Calais;capacitor
6;Saint-Bernard index deposit;alliance moratorium Concrete
7;Shirt withdrawal;hour Awesome Specialiste
8;Exclusive wireless;b turquoise
9;quantifying;system Shoes
10;Midi-Pyrénées Picardie Basse-Normandie;deposit PNG c
