id;profile_title
1;connecting microchip
2;Handmade
3;mobile
4;HDD Fresh intangible
5;THX networks hacking
6;b
7;Cambridgeshire Books maximized
8;relationships transmit
9;Consultant AGP Generic
10;Unbranded
