{
  "name": "Agenda",
  "fields": [
    {
      "fieldName": "dateRDV",
      "fieldType": "LocalDate",
      "fieldValidateRules": ["required"]
    },
    {
      "fieldName": "creneau",
      "fieldType": "Niche",
      "fieldValues": "MATIN,MIDI,APREMIDI,FINAPREMIDI"
    },
    {
      "fieldName": "statusRDV",
      "fieldType": "StatusRdv",
      "fieldValues": "CANCEL,DELAYD,TERMINATED"
    }
  ],
  "relationships": [
    {
      "relationshipType": "many-to-one",
      "otherEntityName": "application",
      "otherEntityRelationshipName": "agenda",
      "relationshipName": "application",
      "otherEntityField": "id"
    }
  ],
  "entityTableName": "agenda",
  "dto": "mapstruct",
  "pagination": "no",
  "service": "serviceImpl",
  "jpaMetamodelFiltering": false,
  "fluentMethods": true,
  "readOnly": false,
  "embedded": false,
  "applications": "*",
  "changelogDate": "20210604232146"
}
