{
  "name": "ApplicationStatus",
  "fields": [
    {
      "fieldName": "status",
      "fieldType": "Status",
      "fieldValues": "NSUB (non soumis),URE (en etude),WAIFD (en attente),DENIED (refuse),ACCEPTED (accepte)"
    }
  ],
  "relationships": [
    {
      "relationshipType": "one-to-many",
      "otherEntityName": "applicationStatusChange",
      "otherEntityRelationshipName": "applicationstatus",
      "relationshipName": "applicationstatuschange",
      "otherEntityField": "id"
    }
  ],
  "javadoc": "ApplicationStatus entity.\\n@author The ZFahraoui team.",
  "entityTableName": "application_status",
  "dto": "mapstruct",
  "pagination": "no",
  "service": "serviceImpl",
  "jpaMetamodelFiltering": false,
  "fluentMethods": true,
  "readOnly": false,
  "embedded": false,
  "applications": "*",
  "changelogDate": "20210604232144"
}
